{
    "stats": {
        "byFile": {},
        "declaredTests": 71,
        "failedHooks": 0,
        "failedTests": 0,
        "failedWorkers": 0,
        "files": 2,
        "parallelRuns": null,
        "finishedWorkers": 2,
        "internalErrors": 0,
        "remainingTests": 0,
        "passedKnownFailingTests": 0,
        "passedTests": 71,
        "selectedTests": 71,
        "skippedTests": 0,
        "timeouts": 0,
        "todoTests": 0,
        "uncaughtExceptions": 0,
        "unhandledRejections": 0
    }
}