[
  "bad-character-acknowledge",
  "bad-character-activate-arabic-form-shaping",
  "bad-character-activate-symmetric-swapping",
  "bad-character-application-program-command",
  "bad-character-backspace",
  "bad-character-bell",
  "bad-character-break-permitted-here",
  "bad-character-cancel",
  "bad-character-cancel-character",
  "bad-character-character-tabulation",
  "bad-character-character-tabulation-set",
  "bad-character-character-tabulation-with-justification",
  "bad-character-control-0080",
  "bad-character-control-0081",
  "bad-character-control-0084",
  "bad-character-control-0099",
  "bad-character-control-sequence-introducer",
  "bad-character-data-link-escape",
  "bad-character-delete",
  "bad-character-device-control-four",
  "bad-character-device-control-one",
  "bad-character-device-control-string",
  "bad-character-device-control-three",
  "bad-character-device-control-two",
  "bad-character-em-quad",
  "bad-character-em-space",
  "bad-character-en-quad",
  "bad-character-en-space",
  "bad-character-end-of-medium",
  "bad-character-end-of-protected-area",
  "bad-character-end-of-selected-area",
  "bad-character-end-of-text",
  "bad-character-end-of-transmission",
  "bad-character-end-of-transmission-block",
  "bad-character-enquiry",
  "bad-character-escape",
  "bad-character-figure-space",
  "bad-character-first-strong-isolate",
  "bad-character-form-feed",
  "bad-character-four-per-em-space",
  "bad-character-function-application",
  "bad-character-hair-space",
  "bad-character-ideographic-space",
  "bad-character-information-separator-four",
  "bad-character-information-separator-one",
  "bad-character-information-separator-three",
  "bad-character-information-separator-two",
  "bad-character-inhibit-arabic-form-shaping",
  "bad-character-inhibit-symmetric-swapping",
  "bad-character-interlinear-annotation-anchor",
  "bad-character-interlinear-annotation-separator",
  "bad-character-interlinear-annotation-terminator",
  "bad-character-invisible-plus",
  "bad-character-invisible-separator",
  "bad-character-invisible-times",
  "bad-character-left-to-right-embedding",
  "bad-character-left-to-right-isolate",
  "bad-character-left-to-right-mark",
  "bad-character-left-to-right-override",
  "bad-character-line-separator",
  "bad-character-line-tabulation",
  "bad-character-line-tabulation-set",
  "bad-character-medium-mathematical-space",
  "bad-character-message-waiting",
  "bad-character-narrow-no-break-space",
  "bad-character-national-digit-shapes",
  "bad-character-negative-acknowledge",
  "bad-character-next-line",
  "bad-character-no-break-here",
  "bad-character-nominal-digit-shapes",
  "bad-character-non-breaking-space",
  "bad-character-null",
  "bad-character-ogham-space-mark",
  "bad-character-operating-system-command",
  "bad-character-paragraph-separator",
  "bad-character-partial-line-backward",
  "bad-character-partial-line-forward",
  "bad-character-pop-directional-formatting",
  "bad-character-pop-directional-isolate",
  "bad-character-private-message",
  "bad-character-private-use-1",
  "bad-character-private-use-2",
  "bad-character-punctuation-space",
  "bad-character-reverse-line-feed",
  "bad-character-right-to-left-embedding",
  "bad-character-right-to-left-isolate",
  "bad-character-right-to-left-mark",
  "bad-character-right-to-left-override",
  "bad-character-set-transmit-state",
  "bad-character-shift-in",
  "bad-character-shift-out",
  "bad-character-single-character-introducer",
  "bad-character-single-shift-three",
  "bad-character-single-shift-two",
  "bad-character-six-per-em-space",
  "bad-character-soft-hyphen",
  "bad-character-start-of-heading",
  "bad-character-start-of-protected-area",
  "bad-character-start-of-selected-area",
  "bad-character-start-of-string",
  "bad-character-start-of-text",
  "bad-character-string-terminator",
  "bad-character-substitute",
  "bad-character-synchronous-idle",
  "bad-character-thin-space",
  "bad-character-three-per-em-space",
  "bad-character-word-joiner",
  "bad-character-zero-width-joiner",
  "bad-character-zero-width-no-break-space",
  "bad-character-zero-width-non-joiner",
  "bad-character-zero-width-space"
]