{
    "all": {
        "all-named-html-entities": 15,
        "array-group-str-omit-num-char": 12,
        "array-includes-with-glob": 18,
        "array-of-arrays-into-ast": 6,
        "array-of-arrays-sort-by-col": 27,
        "array-pull-all-with-glob": 23,
        "arrayiffy-if-string": 4,
        "ast-compare": 72,
        "ast-contains-only-empty-space": 19,
        "ast-deep-contains": 9,
        "ast-delete-object": 71,
        "ast-get-object": 20,
        "ast-get-values-by-key": 28,
        "ast-is-empty": 17,
        "ast-loose-compare": 49,
        "ast-monkey": 71,
        "ast-monkey-traverse": 10,
        "bitbucket-slug": 109,
        "charcode-is-valid-xml-name-character": 4,
        "check-types-mini": 35,
        "chlu": 44,
        "chlu-cli": 5,
        "codsen-tokenizer": 45,
        "color-shorthand-hex-to-six-digit": 19,
        "csv-sort": 22,
        "csv-sort-cli": 2,
        "csv-split-easy": 14,
        "detect-is-it-html-or-xhtml": 17,
        "detergent": 665,
        "easy-replace": 152,
        "edit-package-json": 14166,
        "email-all-chars-within-ascii": 38,
        "email-all-chars-within-ascii-cli": 5,
        "email-comb": 167,
        "email-homey": 5,
        "emlint": 191,
        "generate-atomic-css": 83,
        "generate-atomic-css-cli": 3,
        "gulp-email-remove-unused-css": 1,
        "helga": 3,
        "html-crush": 116,
        "html-entities-not-email-friendly": 1,
        "html-img-alt": 176,
        "html-table-patcher": 24,
        "is-html-tag-opening": 42,
        "js-row-num": 17,
        "js-row-num-cli": 8,
        "json-comb": 5,
        "json-comb-core": 89,
        "json-sort-cli": 16,
        "json-variables": 106,
        "lect": 1,
        "lerna-clean-changelogs": 7,
        "lerna-clean-changelogs-cli": 5,
        "lerna-link-dep": 11,
        "object-all-values-equal-to": 5,
        "object-boolean-combinations": 11,
        "object-delete-key": 36,
        "object-fill-missing-keys": 30,
        "object-flatten-all-arrays": 19,
        "object-flatten-referencing": 33,
        "object-merge-advanced": 86,
        "object-no-new-keys": 12,
        "object-set-all-values-to": 21,
        "ranges-apply": 19,
        "ranges-crop": 17,
        "ranges-ent-decode": 53,
        "ranges-invert": 16,
        "ranges-is-index-within": 15,
        "ranges-iterate": 21,
        "ranges-merge": 22,
        "ranges-process-outside": 26,
        "ranges-push": 107,
        "ranges-regex": 8,
        "ranges-sort": 16,
        "regex-empty-conditional-comments": 3,
        "str-indexes-of-plus": 15,
        "string-apostrophes": 77,
        "string-character-is-astral-surrogate": 5,
        "string-collapse-leading-whitespace": 140,
        "string-collapse-white-space": 128,
        "string-convert-indexes": 10,
        "string-extract-class-names": 67,
        "string-find-heads-tails": 19,
        "string-fix-broken-named-entities": 258,
        "string-left-right": 55,
        "string-match-left-right": 58,
        "string-overlap-one-on-another": 5,
        "string-range-expander": 31,
        "string-remove-duplicate-heads-tails": 35,
        "string-remove-thousand-separators": 14,
        "string-remove-widows": 99,
        "string-split-by-whitespace": 9,
        "string-strip-html": 392,
        "string-trim-spaces-only": 30,
        "string-uglify": 12,
        "string-unfancy": 5,
        "update-versions": 6,
        "util-array-object-or-both": 5,
        "util-nonempty": 9
    },
    "totalPackageCount": 100,
    "totalTestsCount": 18950,
    "minTestsCount": 2,
    "minTestsName": "csv-sort-cli",
    "maxTestsCount": 14166,
    "maxTestsName": "edit-package-json",
    "testsCountMedian": 19,
    "testsCountArithmeticMean": 190,
    "testsCountGeometricMean": 22
}